…
    ## Rows: 1458 Columns: 123
    ## ── Column specification ────────────────────────────────────────────────────────
    ## Delimiter: ","
    ## chr   (3): ISO_code, countries, region
    ## dbl (120): year, pf_rol_procedural, pf_rol_civil, pf_rol_criminal, pf_rol, p...
    ## 
    ## ℹ Use `spec()` to retrieve the full column specification for this data.
    ## ℹ Specify the column types or set `show_col_types = FALSE` to quiet this message.

``` r
hfi
```

    ## # A tibble: 1,458 × 123
    ##     year ISO_code countr…¹ region pf_ro…² pf_ro…³ pf_ro…⁴ pf_rol pf_ss…⁵ pf_ss…⁶
    ##    <dbl> <chr>    <chr>    <chr>    <dbl>   <dbl>   <dbl>  <dbl>   <dbl>   <dbl>
    ##  1  2016 ALB      Albania  Easte…    6.66    4.55    4.67   5.29    8.92      10
    ##  2  2016 DZA      Algeria  Middl…   NA      NA      NA      3.82    9.46      10
    ##  3  2016 AGO      Angola   Sub-S…   NA      NA      NA      3.45    8.06       5
    ##  4  2016 ARG      Argenti… Latin…    7.10    5.79    4.34   5.74    7.62      10
    ##  5  2016 ARM      Armenia  Cauca…   NA      NA      NA      5.00    8.81      10
    ##  6  2016 AUS      Austral… Ocean…    8.44    7.53    7.36   7.78    9.62      10
    ##  7  2016 AUT      Austria  Weste…    8.97    7.87    7.67   8.17    9.74      10
    ##  8  2016 AZE      Azerbai… Cauca…   NA      NA      NA      4.27    9.14      10
    ##  9  2016 BHS      Bahamas  Latin…    6.93    6.01    6.26   6.40    0         10
    ## 10  2016 BHR      Bahrain  Middl…   NA      NA      NA      5.90    9.79      10
    ## # … with 1,448 more rows, 113 more variables:
    ## #   pf_ss_disappearances_violent <dbl>, pf_ss_disappearances_organized <dbl>,
    ## #   pf_ss_disappearances_fatalities <dbl>, pf_ss_disappearances_injuries <dbl>,
    ## #   pf_ss_disappearances <dbl>, pf_ss_women_fgm <dbl>,
    ## #   pf_ss_women_missing <dbl>, pf_ss_women_inheritance_widows <dbl>,
    ## #   pf_ss_women_inheritance_daughters <dbl>, pf_ss_women_inheritance <dbl>,
    ## #   pf_ss_women <dbl>, pf_ss <dbl>, pf_movement_domestic <dbl>, …

1.  From the dataset I could find that dimensions are **1458 X 123**.
    Each row represents data for each country.

``` r
hfi_2016 <- hfi %>% filter(year == 2016)

hfi_2016
```

    ## # A tibble: 162 × 123
    ##     year ISO_code countr…¹ region pf_ro…² pf_ro…³ pf_ro…⁴ pf_rol pf_ss…⁵ pf_ss…⁶
    ##    <dbl> <chr>    <chr>    <chr>    <dbl>   <dbl>   <dbl>  <dbl>   <dbl>   <dbl>
    ##  1  2016 ALB      Albania  Easte…    6.66    4.55    4.67   5.29    8.92      10
    ##  2  2016 DZA      Algeria  Middl…   NA      NA      NA      3.82    9.46      10
    ##  3  2016 AGO      Angola   Sub-S…   NA      NA      NA      3.45    8.06       5
    ##  4  2016 ARG      Argenti… Latin…    7.10    5.79    4.34   5.74    7.62      10
    ##  5  2016 ARM      Armenia  Cauca…   NA      NA      NA      5.00    8.81      10
    ##  6  2016 AUS      Austral… Ocean…    8.44    7.53    7.36   7.78    9.62      10
    ##  7  2016 AUT      Austria  Weste…    8.97    7.87    7.67   8.17    9.74      10
    ##  8  2016 AZE      Azerbai… Cauca…   NA      NA      NA      4.27    9.14      10
    ##  9  2016 BHS      Bahamas  Latin…    6.93    6.01    6.26   6.40    0         10
    ## 10  2016 BHR      Bahrain  Middl…   NA      NA      NA      5.90    9.79      10
    ## # … with 152 more rows, 113 more variables: pf_ss_disappearances_violent <dbl>,
    ## #   pf_ss_disappearances_organized <dbl>,
    ## #   pf_ss_disappearances_fatalities <dbl>, pf_ss_disappearances_injuries <dbl>,
    ## #   pf_ss_disappearances <dbl>, pf_ss_women_fgm <dbl>,
    ## #   pf_ss_women_missing <dbl>, pf_ss_women_inheritance_widows <dbl>,
    ## #   pf_ss_women_inheritance_daughters <dbl>, pf_ss_women_inheritance <dbl>,
    ## #   pf_ss_women <dbl>, pf_ss <dbl>, pf_movement_domestic <dbl>, …
…
